WP4 - 2 Rebeca: intermediate R/eurostat user
…
… and create a derived dataset showing the annualised cultural employment growth rates of European countries from the original cult_emp_sex dataaset with tidyverse functions.

cult_emp_growth_sex <- cult_emp_sex %>%
   filter(TIME_PERIOD %in% c(as.Date("2022-01-01"), as.Date("2013-01-01"))) %>%
   mutate(time_var = paste0("Y", substr(as.character(TIME_PERIOD), 1, 4))) %>%
   select(-TIME_PERIOD) %>%
   pivot_wider(names_from = "time_var", values_from = "values") %>%
   mutate(annual_growth = (Y2022 / Y2013)^0.1)

cult_emp_growth_sex 

# A tibble: 216 × 7
   freq  sex   unit   geo   Y2013 Y2022 annual_growth
   <chr> <chr> <chr>  <chr> <dbl> <dbl>         <dbl>
 1 A     F     PC_EMP AT      4.1   4.2         1.00 
 2 A     F     PC_EMP BE      3.5   4.3         1.02 
 3 A     F     PC_EMP BG      3.2   3.3         1.00 
 4 A     F     PC_EMP CH      5.4   5           0.992
 5 A     F     PC_EMP CY      3.2   5           1.05 
 6 A     F     PC_EMP CZ      4.3   4.2         0.998
 7 A     F     PC_EMP DE      4.2   4.2         1    
 8 A     F     PC_EMP DK      5     4.9         0.998
 9 A     F     PC_EMP EE      6.5   5.1         0.976
10 A     F     PC_EMP EL      3.7   4.5         1.02 
# ℹ 206 more rows
…
